{
  "info": {
    "count": 3,
    "pages": 1,
    "next": "https://rickandmortyapi.com/api/tests?page=2",
    "prev": ""
  },
  "results": [
              {
              "id": 1,
              "name": "Pilot",
              },
              {
              "id": 2,
              "name": "Lawnmower Dog",
              },
              {
              "id": 3,
              "name": "Anatomy Park"
              }
  ]
}
